{
    "morph": {
        "branch": "master",
        "description": "NixOS deployment tool",
        "homepage": null,
        "owner": "DBCDK",
        "repo": "morph",
        "rev": "30207a7f5ab4c8a069e469a2b28d84024e702ad6",
        "sha256": "0x07nidhizvcahhcq0y24kzf7q81c56193jmf9kmxjijzhwk6biz",
        "type": "tarball",
        "url": "https://github.com/DBCDK/morph/archive/30207a7f5ab4c8a069e469a2b28d84024e702ad6.tar.gz",
        "url_template": "https://github.com/<owner>/<repo>/archive/<rev>.tar.gz"
    },
    "nix-pre-commit-hooks": {
        "branch": "master",
        "description": "Seamless integration of https://pre-commit.com git hooks with Nix.",
        "homepage": "",
        "owner": "cachix",
        "repo": "pre-commit-hooks.nix",
        "rev": "6a9402e8f233de16536349d1dd3f4595c23386a4",
        "sha256": "104shb5xv6dh6znj9bxq0v5i5inpq6x17x1fzil7dp47lrmfznkk",
        "type": "tarball",
        "url": "https://github.com/cachix/pre-commit-hooks.nix/archive/6a9402e8f233de16536349d1dd3f4595c23386a4.tar.gz",
        "url_template": "https://github.com/<owner>/<repo>/archive/<rev>.tar.gz"
    },
    "nixos-22.05": {
        "branch": "nixos-22.05",
        "description": "Nix Packages collection",
        "homepage": "",
        "owner": "NixOS",
        "repo": "nixpkgs",
        "rev": "e4c9d950a3c54a0760b127d406f6528eb625eed8",
        "sha256": "1sfyapxxhnplyn4jpcf5y4vy16lsayywajhyf8l6vsahlbrmmh0h",
        "type": "tarball",
        "url": "https://github.com/NixOS/nixpkgs/archive/e4c9d950a3c54a0760b127d406f6528eb625eed8.tar.gz",
        "url_template": "https://github.com/<owner>/<repo>/archive/<rev>.tar.gz"
    },
    "nixpkgs-unstable": {
        "branch": "nixpkgs-unstable",
        "description": "Nix Packages collection",
        "homepage": "",
        "owner": "NixOS",
        "repo": "nixpkgs",
        "rev": "ebcea6302e4b221e79656f7a718f5cb55affde2f",
        "sha256": "1j4jsdl296ayzik55l6zvglfilg7ngvw4aw9z8xm92m8nj4z6224",
        "type": "tarball",
        "url": "https://github.com/NixOS/nixpkgs/archive/ebcea6302e4b221e79656f7a718f5cb55affde2f.tar.gz",
        "url_template": "https://github.com/<owner>/<repo>/archive/<rev>.tar.gz"
    }
}
